{
  "prepare_queue": {
    "installed": [],
    "uninstalled": []
  },
  "config_munge": {
    "files": {}
  },
  "installed_plugins": {
    "cordova-plugin-whitelist": {
      "PACKAGE_NAME": "ttt23392568.computing.edgehill.ac.uk"
    },
    "cordova-plugin-x-toast": {
      "PACKAGE_NAME": "ttt23392568.computing.edgehill.ac.uk"
    }
  },
  "dependent_plugins": {}
}